^H:\ASSIGNMENT1\ASSIGNMENT1\DEBUG\ASSIGN1.OBJ|H:\ASSIGNMENT1\ASSIGNMENT1\DEBUG\MAIN.OBJ
H:\ASSIGNMENT1\DEBUG\ASSIGNMENT1.EXE
H:\ASSIGNMENT1\ASSIGNMENT1\DEBUG\ASSIGNMENT1.EXE.INTERMEDIATE.MANIFEST
H:\ASSIGNMENT1\DEBUG\ASSIGNMENT1.PDB
^I:\ASSIGNMENT1\ASSIGNMENT1\DEBUG\ASSIGN1.OBJ|I:\ASSIGNMENT1\ASSIGNMENT1\DEBUG\MAIN.OBJ
I:\ASSIGNMENT1\DEBUG\ASSIGNMENT1.EXE
I:\ASSIGNMENT1\ASSIGNMENT1\DEBUG\ASSIGNMENT1.EXE.INTERMEDIATE.MANIFEST
I:\ASSIGNMENT1\DEBUG\ASSIGNMENT1.PDB
