^H:\ASSIGNMENT1\ASSIGNMENT1\DEBUG\ASSIGN1.OBJ|H:\ASSIGNMENT1\ASSIGNMENT1\DEBUG\MAIN.OBJ
/ERRORREPORT:PROMPT /OUT:"H:\Assignment1\Debug\Assignment1.exe" /INCREMENTAL:NO /NOLOGO /LIBPATH:C:\opencv\build\x86\vc10\lib opencv_core243d.lib opencv_highgui243d.lib kernel32.lib user32.lib gdi32.lib winspool.lib comdlg32.lib advapi32.lib shell32.lib ole32.lib oleaut32.lib uuid.lib odbc32.lib odbccp32.lib /MANIFEST /ManifestFile:"Debug\Assignment1.exe.intermediate.manifest" /MANIFESTUAC:"level='asInvoker' uiAccess='false'" /DEBUG /PDB:"H:\Assignment1\Debug\Assignment1.pdb" /SUBSYSTEM:CONSOLE /TLBID:1 /DYNAMICBASE /NXCOMPAT /IMPLIB:"H:\Assignment1\Debug\Assignment1.lib" /MACHINE:X86 Debug\assign1.obj
Debug\main.obj
^I:\ASSIGNMENT1\ASSIGNMENT1\DEBUG\ASSIGN1.OBJ|I:\ASSIGNMENT1\ASSIGNMENT1\DEBUG\MAIN.OBJ
/ERRORREPORT:PROMPT /OUT:"I:\Assignment1\Debug\Assignment1.exe" /INCREMENTAL:NO /NOLOGO /LIBPATH:C:\opencv\build\x86\vc10\lib opencv_core243d.lib opencv_highgui243d.lib kernel32.lib user32.lib gdi32.lib winspool.lib comdlg32.lib advapi32.lib shell32.lib ole32.lib oleaut32.lib uuid.lib odbc32.lib odbccp32.lib /MANIFEST /ManifestFile:"Debug\Assignment1.exe.intermediate.manifest" /MANIFESTUAC:"level='asInvoker' uiAccess='false'" /DEBUG /PDB:"I:\Assignment1\Debug\Assignment1.pdb" /SUBSYSTEM:CONSOLE /TLBID:1 /DYNAMICBASE /NXCOMPAT /IMPLIB:"I:\Assignment1\Debug\Assignment1.lib" /MACHINE:X86 Debug\assign1.obj
Debug\main.obj
