^I:\ASSIGNMENT2-RELEASE\ASSIGNMENT2\DEBUG\ASSIGN2.OBJ|I:\ASSIGNMENT2-RELEASE\ASSIGNMENT2\DEBUG\ASSIGNMENT2.EXE.EMBED.MANIFEST.RES|I:\ASSIGNMENT2-RELEASE\ASSIGNMENT2\DEBUG\MAIN.OBJ
C:\PROGRAM FILES\MICROSOFT VISUAL STUDIO 10.0\VC\BIN\LINK.EXE
C:\PROGRAMDATA\SOPHOS\SOPHOS ANTI-VIRUS\CONFIG\CONFIG.BOPS
C:\OPENCV\BUILD\X86\VC10\LIB\OPENCV_CORE243D.LIB
C:\OPENCV\BUILD\X86\VC10\LIB\OPENCV_HIGHGUI243D.LIB
C:\OPENCV\BUILD\X86\VC10\LIB\OPENCV_IMGPROC243D.LIB
C:\PROGRAM FILES\MICROSOFT SDKS\WINDOWS\V7.0A\LIB\KERNEL32.LIB
C:\PROGRAM FILES\MICROSOFT SDKS\WINDOWS\V7.0A\LIB\USER32.LIB
C:\PROGRAM FILES\MICROSOFT SDKS\WINDOWS\V7.0A\LIB\GDI32.LIB
C:\PROGRAM FILES\MICROSOFT SDKS\WINDOWS\V7.0A\LIB\WINSPOOL.LIB
C:\PROGRAM FILES\MICROSOFT SDKS\WINDOWS\V7.0A\LIB\COMDLG32.LIB
C:\PROGRAM FILES\MICROSOFT SDKS\WINDOWS\V7.0A\LIB\ADVAPI32.LIB
C:\PROGRAM FILES\MICROSOFT SDKS\WINDOWS\V7.0A\LIB\SHELL32.LIB
C:\PROGRAM FILES\MICROSOFT SDKS\WINDOWS\V7.0A\LIB\OLE32.LIB
C:\PROGRAM FILES\MICROSOFT SDKS\WINDOWS\V7.0A\LIB\OLEAUT32.LIB
C:\PROGRAM FILES\MICROSOFT SDKS\WINDOWS\V7.0A\LIB\UUID.LIB
C:\PROGRAM FILES\MICROSOFT SDKS\WINDOWS\V7.0A\LIB\ODBC32.LIB
C:\PROGRAM FILES\MICROSOFT SDKS\WINDOWS\V7.0A\LIB\ODBCCP32.LIB
I:\ASSIGNMENT2-RELEASE\ASSIGNMENT2\DEBUG\ASSIGNMENT2.EXE.EMBED.MANIFEST.RES
I:\ASSIGNMENT2-RELEASE\ASSIGNMENT2\DEBUG\ASSIGN2.OBJ
I:\ASSIGNMENT2-RELEASE\ASSIGNMENT2\DEBUG\MAIN.OBJ
C:\WINDOWS\SYSTEM32\TZRES.DLL
I:\ASSIGNMENT2-RELEASE\DEBUG\ASSIGNMENT2.EXE
I:\ASSIGNMENT2-RELEASE\DEBUG\ASSIGNMENT2.PDB
C:\WINDOWS\GLOBALIZATION\SORTING\SORTDEFAULT.NLS
C:\PROGRAM FILES\MICROSOFT VISUAL STUDIO 10.0\VC\LIB\MSVCPRTD.LIB
C:\PROGRAM FILES\MICROSOFT VISUAL STUDIO 10.0\VC\LIB\MSVCRTD.LIB
C:\PROGRAM FILES\MICROSOFT VISUAL STUDIO 10.0\VC\LIB\OLDNAMES.LIB
C:\WINDOWS\SYSTEM32\RSAENH.DLL
C:\PROGRAM FILES\MICROSOFT VISUAL STUDIO 10.0\VC\BIN\CVTRES.EXE
