^C:\USERS\CORY\DESKTOP\ASSIGNMENT3-TEMPLATE\ASSIGNMENT3-RELEASE\ASSIGNMENT3\ASSIGN3.CPP|C:\USERS\CORY\DESKTOP\ASSIGNMENT3-TEMPLATE\ASSIGNMENT3-RELEASE\ASSIGNMENT3\MAIN.CPP
C:\USERS\CORY\DESKTOP\ASSIGNMENT3-TEMPLATE\ASSIGNMENT3-RELEASE\ASSIGNMENT3\DEBUG\ASSIGN3.OBJ
C:\USERS\CORY\DESKTOP\ASSIGNMENT3-TEMPLATE\ASSIGNMENT3-RELEASE\ASSIGNMENT3\DEBUG\MAIN.OBJ
^C:\USERS\CORY\DESKTOP\ASSIGNMENT3-TEMPLATE\ASSIGNMENT3-RELEASE\ASSIGNMENT3\ASSIGN3.CPP
C:\USERS\CORY\DESKTOP\ASSIGNMENT3-TEMPLATE\ASSIGNMENT3-RELEASE\ASSIGNMENT3\DEBUG\VC100.PDB
C:\USERS\CORY\DESKTOP\ASSIGNMENT3-TEMPLATE\ASSIGNMENT3-RELEASE\ASSIGNMENT3\DEBUG\ASSIGN3.OBJ
^C:\USERS\CORY\DESKTOP\ASSIGNMENT3-TEMPLATE\ASSIGNMENT3-RELEASE\ASSIGNMENT3\MAIN.CPP
C:\USERS\CORY\DESKTOP\ASSIGNMENT3-TEMPLATE\ASSIGNMENT3-RELEASE\ASSIGNMENT3\DEBUG\VC100.PDB
C:\USERS\CORY\DESKTOP\ASSIGNMENT3-TEMPLATE\ASSIGNMENT3-RELEASE\ASSIGNMENT3\DEBUG\MAIN.OBJ
^C:\USERS\CORY\CODE\VISUA_STUDIO2010\VISION_A3\ASSIGNMENT3\ASSIGN3.CPP|C:\USERS\CORY\CODE\VISUA_STUDIO2010\VISION_A3\ASSIGNMENT3\MAIN.CPP
C:\USERS\CORY\CODE\VISUA_STUDIO2010\VISION_A3\ASSIGNMENT3\DEBUG\ASSIGN3.OBJ
C:\USERS\CORY\CODE\VISUA_STUDIO2010\VISION_A3\ASSIGNMENT3\DEBUG\MAIN.OBJ
^C:\USERS\CORY\CODE\VISUA_STUDIO2010\VISION_A3\ASSIGNMENT3\ASSIGN3.CPP
C:\USERS\CORY\CODE\VISUA_STUDIO2010\VISION_A3\ASSIGNMENT3\DEBUG\VC100.PDB
C:\USERS\CORY\CODE\VISUA_STUDIO2010\VISION_A3\ASSIGNMENT3\DEBUG\ASSIGN3.OBJ
^C:\USERS\CORY\CODE\VISUA_STUDIO2010\VISION_A3\ASSIGNMENT3\MAIN.CPP
C:\USERS\CORY\CODE\VISUA_STUDIO2010\VISION_A3\ASSIGNMENT3\DEBUG\VC100.PDB
C:\USERS\CORY\CODE\VISUA_STUDIO2010\VISION_A3\ASSIGNMENT3\DEBUG\MAIN.OBJ
