^C:\USERS\CORY\DESKTOP\ASSIGNMENT3-TEMPLATE\ASSIGNMENT3-RELEASE\ASSIGNMENT3\DEBUG\ASSIGNMENT3.EXE.INTERMEDIATE.MANIFEST
C:\WINDOWS\MICROSOFT.NET\FRAMEWORK\V2.0.50727\MSCORWKS.DLL
C:\WINDOWS\MICROSOFT.NET\FRAMEWORK\V4.0.30319\CLR.DLL
C:\PROGRAM FILES (X86)\MICROSOFT SDKS\WINDOWS\V7.0A\BIN\MT.EXE.CONFIG
C:\USERS\CORY\DESKTOP\ASSIGNMENT3-TEMPLATE\ASSIGNMENT3-RELEASE\DEBUG\ASSIGNMENT3.EXE
^C:\USERS\CORY\CODE\VISUA_STUDIO2010\VISION_A3\ASSIGNMENT3\DEBUG\ASSIGNMENT3.EXE.INTERMEDIATE.MANIFEST
C:\WINDOWS\MICROSOFT.NET\FRAMEWORK\V2.0.50727\MSCORWKS.DLL
C:\WINDOWS\MICROSOFT.NET\FRAMEWORK\V4.0.30319\CLR.DLL
C:\PROGRAM FILES (X86)\MICROSOFT SDKS\WINDOWS\V7.0A\BIN\MT.EXE.CONFIG
C:\USERS\CORY\CODE\VISUA_STUDIO2010\VISION_A3\DEBUG\ASSIGNMENT3.EXE
